ropensci-review-tools/pkgstats
…
cran_20230905 %>% 
  filter(Package %>% 
           str_detect("^gg|^GG")) %>% 
  filter(Imports %>% 
           str_detect("ggplot2")|
         Depends %>% str_detect("ggplot2")) %>% 
  left_join(package_authors %>% 
              mutate(authorsR = authorsR %>% 
                       str_replace(" ", "\n")), by = "Package") %>% 
  select(Package, authorsR, URL, everything())

# A tibble: 415 × 68
   Package    authorsR URL   Version Priority Depends Imports LinkingTo Suggests
   <chr>      <chr>    <chr> <chr>   <chr>    <chr>   <chr>   <chr>     <chr>   
 1 gg.gap     "Jiache… http… 1.3     <NA>     <NA>    "ggplo… <NA>       <NA>   
 2 gg.gap     "Jing\n… http… 1.3     <NA>     <NA>    "ggplo… <NA>       <NA>   
 3 gg.gap     "Yizhu\… http… 1.3     <NA>     <NA>    "ggplo… <NA>       <NA>   
 4 gg.gap     "Zhi\nJ… http… 1.3     <NA>     <NA>    "ggplo… <NA>       <NA>   
 5 ggaligner  "Mohame… <NA>  0.1     <NA>     <NA>    "ggplo… <NA>       <NA>   
 6 ggalignme… "Afton\… <NA>  1.0.1   <NA>     R (>= … "dplyr… <NA>      "rmarkd…
 7 ggalignme… "Tan\nH… <NA>  1.0.1   <NA>     R (>= … "dplyr… <NA>      "rmarkd…
 8 ggallin    "Steven… http… 0.1.1   <NA>     ggplot… "scale… <NA>      "knitr,…
 9 ggalluvial "Jason\… http… 0.12.5  <NA>     R (>= … "stats… <NA>      "grid, …
10 ggalluvial "Quenti… http… 0.12.5  <NA>     R (>= … "stats… <NA>      "grid, …
# ℹ 405 more rows
# ℹ 59 more variables: Enhances <chr>, License <chr>, License_is_FOSS <lgl>,
#   License_restricts_use <lgl>, OS_type <chr>, Archs <chr>, MD5sum <chr>,
#   NeedsCompilation <chr>, Additional_repositories <chr>, Author <chr>,
#   `Authors@R` <chr>, Biarch <chr>, BugReports <chr>, BuildKeepEmpty <lgl>,
#   BuildManual <lgl>, BuildResaveData <chr>, BuildVignettes <chr>,
#   Built <lgl>, ByteCompile <chr>, `Classification/ACM` <lgl>, …
