featurette
…
.panel1-feature-auto[

``` r
library(tidyverse)
library(ggedgelist)  # development pkg experimental
library(ggraph)

*cran_20230905
```
]
 
.panel2-feature-auto[

```
## # A tibble: 19,838 × 67
##    Package  Version Priority Depends Imports LinkingTo Suggests Enhances License
##    <chr>    <chr>   <chr>    <chr>   <chr>   <chr>     <chr>    <chr>    <chr>  
##  1 A3       1.0.0   <NA>     R (>= … <NA>    <NA>      randomF… <NA>     GPL (>…
##  2 AalenJo… 1.0     <NA>     <NA>    <NA>    <NA>      knitr, … <NA>     GPL (>…
##  3 AATtools 0.0.2   <NA>     R (>= … magrit… <NA>      <NA>     <NA>     GPL-3  
##  4 ABACUS   1.0.0   <NA>     R (>= … ggplot… <NA>      rmarkdo… <NA>     GPL-3  
##  5 abasequ… 0.1.0   <NA>     <NA>    <NA>    <NA>      <NA>     <NA>     GPL-3  
##  6 abbrevi… 0.1     <NA>     <NA>    <NA>    <NA>      testtha… <NA>     GPL-3  
##  7 abbyyR   0.5.5   <NA>     R (>= … httr, … <NA>      testtha… <NA>     MIT + …
##  8 abc      2.2.1   <NA>     R (>= … <NA>    <NA>      <NA>     <NA>     GPL (>…
##  9 abc.data 1.0     <NA>     R (>= … <NA>    <NA>      <NA>     <NA>     GPL (>…
## 10 ABC.RAP  0.9.0   <NA>     R (>= … graphi… <NA>      knitr, … <NA>     GPL-3  
## # ℹ 19,828 more rows
## # ℹ 58 more variables: License_is_FOSS <lgl>, License_restricts_use <lgl>,
## #   OS_type <chr>, Archs <chr>, MD5sum <chr>, NeedsCompilation <chr>,
## #   Additional_repositories <chr>, Author <chr>, `Authors@R` <chr>,
## #   Biarch <chr>, BugReports <chr>, BuildKeepEmpty <lgl>, BuildManual <lgl>,
## #   BuildResaveData <chr>, BuildVignettes <chr>, Built <lgl>,
## #   ByteCompile <chr>, `Classification/ACM` <lgl>, …
```
…
``` r
library(tidyverse)
library(ggedgelist)  # development pkg experimental
library(ggraph)

cran_20230905 %>%
* filter(Package %>%
*          str_detect("^gg|^GG"))
```
]
 
.panel2-feature-auto[

```
## # A tibble: 206 × 67
##    Package  Version Priority Depends Imports LinkingTo Suggests Enhances License
##    <chr>    <chr>   <chr>    <chr>   <chr>   <chr>     <chr>    <chr>    <chr>  
##  1 gg.gap   1.3     <NA>     <NA>    "ggplo… <NA>       <NA>    <NA>     GPL-3  
##  2 ggalign… 0.1     <NA>     <NA>    "ggplo… <NA>       <NA>    <NA>     GPL-3  
##  3 ggalign… 1.0.1   <NA>     R (>= … "dplyr… <NA>      "rmarkd… <NA>     MIT + …
##  4 ggallin  0.1.1   <NA>     ggplot… "scale… <NA>      "knitr,… <NA>     LGPL-3 
##  5 ggalluv… 0.12.5  <NA>     R (>= … "stats… <NA>      "grid, … <NA>     GPL-3  
##  6 GGally   2.1.2   <NA>     R (>= … "dplyr… <NA>      "broom … <NA>     GPL (>…
##  7 ggalt    0.4.0   <NA>     R (>= … "utils… <NA>      "testth… <NA>     AGPL +…
##  8 ggamma   1.0.1   <NA>     R (>= …  <NA>   <NA>      "testth… <NA>     MIT + …
##  9 gganima… 1.0.8   <NA>     ggplot… "strin… <NA>      "magick… <NA>     MIT + …
## 10 ggarche… 0.4.2   <NA>     R (>= … "ggplo… <NA>       <NA>    <NA>     GPL-3  
## # ℹ 196 more rows
## # ℹ 58 more variables: License_is_FOSS <lgl>, License_restricts_use <lgl>,
## #   OS_type <chr>, Archs <chr>, MD5sum <chr>, NeedsCompilation <chr>,
## #   Additional_repositories <chr>, Author <chr>, `Authors@R` <chr>,
## #   Biarch <chr>, BugReports <chr>, BuildKeepEmpty <lgl>, BuildManual <lgl>,
## #   BuildResaveData <chr>, BuildVignettes <chr>, Built <lgl>,
## #   ByteCompile <chr>, `Classification/ACM` <lgl>, …
```
…
cran_20230905 %>%
  filter(Package %>%
           str_detect("^gg|^GG")) %>%
* filter(Imports %>%
*          str_detect("ggplot2")|
*        Depends %>% str_detect("ggplot2"))
```
]
 
.panel2-feature-auto[

```
## # A tibble: 185 × 67
##    Package  Version Priority Depends Imports LinkingTo Suggests Enhances License
##    <chr>    <chr>   <chr>    <chr>   <chr>   <chr>     <chr>    <chr>    <chr>  
##  1 gg.gap   1.3     <NA>     <NA>    "ggplo… <NA>       <NA>    <NA>     GPL-3  
##  2 ggalign… 0.1     <NA>     <NA>    "ggplo… <NA>       <NA>    <NA>     GPL-3  
##  3 ggalign… 1.0.1   <NA>     R (>= … "dplyr… <NA>      "rmarkd… <NA>     MIT + …
##  4 ggallin  0.1.1   <NA>     ggplot… "scale… <NA>      "knitr,… <NA>     LGPL-3 
##  5 ggalluv… 0.12.5  <NA>     R (>= … "stats… <NA>      "grid, … <NA>     GPL-3  
##  6 GGally   2.1.2   <NA>     R (>= … "dplyr… <NA>      "broom … <NA>     GPL (>…
##  7 ggalt    0.4.0   <NA>     R (>= … "utils… <NA>      "testth… <NA>     AGPL +…
##  8 gganima… 1.0.8   <NA>     ggplot… "strin… <NA>      "magick… <NA>     MIT + …
##  9 ggarche… 0.4.2   <NA>     R (>= … "ggplo… <NA>       <NA>    <NA>     GPL-3  
## 10 ggasym   0.1.6   <NA>     R (>= … "dplyr… <NA>      "knitr,… <NA>     GPL-3  
## # ℹ 175 more rows
## # ℹ 58 more variables: License_is_FOSS <lgl>, License_restricts_use <lgl>,
## #   OS_type <chr>, Archs <chr>, MD5sum <chr>, NeedsCompilation <chr>,
## #   Additional_repositories <chr>, Author <chr>, `Authors@R` <chr>,
## #   Biarch <chr>, BugReports <chr>, BuildKeepEmpty <lgl>, BuildManual <lgl>,
## #   BuildResaveData <chr>, BuildVignettes <chr>, Built <lgl>,
## #   ByteCompile <chr>, `Classification/ACM` <lgl>, …
```
…
cran_20230905 %>%
  filter(Package %>%
           str_detect("^gg|^GG")) %>%
  filter(Imports %>%
           str_detect("ggplot2")|
         Depends %>% str_detect("ggplot2")) %>%
* select(Package)
```
]
 
.panel2-feature-auto[

```
## # A tibble: 185 × 1
##    Package    
##    <chr>      
##  1 gg.gap     
##  2 ggaligner  
##  3 ggalignment
##  4 ggallin    
##  5 ggalluvial 
##  6 GGally     
##  7 ggalt      
##  8 gganimate  
##  9 ggarchery  
## 10 ggasym     
## # ℹ 175 more rows
```
…
.panel2-feature-auto[

```
## # A tibble: 415 × 2
##    Package     authorsR             
##    <chr>       <chr>                
##  1 gg.gap      "Jiacheng\nLou"      
##  2 gg.gap      "Jing\nZhang"        
##  3 gg.gap      "Yizhu\nLvy"         
##  4 gg.gap      "Zhi\nJin"           
##  5 ggaligner   "Mohamed\nSoudy"     
##  6 ggalignment "Afton\nCoombs"      
##  7 ggalignment "Tan\nHo"            
##  8 ggallin     "Steven\nE. Pav"     
##  9 ggalluvial  "Jason\nCory Brunson"
## 10 ggalluvial  "Quentin\nD. Read"   
## # ℹ 405 more rows
```
…
